set_74/support_set/image_0.png, 0
set_74/support_set/image_1.png, 0
set_74/support_set/image_2.png, 0
set_74/support_set/image_3.png, 0
set_74/support_set/image_4.png, 1
set_74/support_set/image_5.png, 1
set_74/support_set/image_6.png, 2
set_74/support_set/image_7.png, 2
set_74/support_set/image_8.png, 2
set_74/support_set/image_9.png, 2
set_74/support_set/image_10.png, 3
set_74/support_set/image_11.png, 3
set_74/support_set/image_12.png, 4
set_74/support_set/image_13.png, 4
set_74/support_set/image_14.png, 4
set_74/support_set/image_15.png, 5
set_74/support_set/image_16.png, 5
set_74/support_set/image_17.png, 5
set_74/support_set/image_18.png, 6
set_74/support_set/image_19.png, 6
set_74/support_set/image_20.png, 7
set_74/support_set/image_21.png, 7
set_74/support_set/image_22.png, 8
set_74/support_set/image_23.png, 9
set_74/support_set/image_24.png, 9
set_74/support_set/image_25.png, 9
set_74/support_set/image_26.png, 10
set_74/support_set/image_27.png, 11
set_74/support_set/image_28.png, 11
set_74/support_set/image_29.png, 12
set_74/support_set/image_30.png, 12
set_74/support_set/image_31.png, 12
set_74/support_set/image_32.png, 13
set_74/support_set/image_33.png, 13
set_74/support_set/image_34.png, 14
set_74/support_set/image_35.png, 14
set_74/support_set/image_36.png, 15
set_74/support_set/image_37.png, 15
set_74/support_set/image_38.png, 15
set_74/support_set/image_39.png, 15
set_74/support_set/image_40.png, 16
set_74/support_set/image_41.png, 16
set_74/support_set/image_42.png, 17
set_74/support_set/image_43.png, 17
set_74/support_set/image_44.png, 17
set_74/support_set/image_45.png, 18
set_74/support_set/image_46.png, 18
set_74/support_set/image_47.png, 18
set_74/support_set/image_48.png, 18
set_74/support_set/image_49.png, 19
set_74/support_set/image_50.png, 19
set_74/support_set/image_51.png, 19
set_74/support_set/image_52.png, 20
set_74/support_set/image_53.png, 20
set_74/support_set/image_54.png, 21
set_74/support_set/image_55.png, 21
set_74/support_set/image_56.png, 21
set_74/support_set/image_57.png, 22
set_74/support_set/image_58.png, 22
set_74/support_set/image_59.png, 22
set_74/support_set/image_60.png, 22
set_74/support_set/image_61.png, 23
set_74/support_set/image_62.png, 23
set_74/support_set/image_63.png, 23
set_74/support_set/image_64.png, 23
set_74/support_set/image_65.png, 24
set_74/support_set/image_66.png, 24
set_74/support_set/image_67.png, 24
set_74/support_set/image_68.png, 24
set_74/support_set/image_69.png, 25
set_74/support_set/image_70.png, 25
set_74/support_set/image_71.png, 26
set_74/support_set/image_72.png, 26
set_74/support_set/image_73.png, 27
set_74/support_set/image_74.png, 27
set_74/support_set/image_75.png, 28
set_74/support_set/image_76.png, 28
set_74/support_set/image_77.png, 28
set_74/support_set/image_78.png, 29
set_74/support_set/image_79.png, 29
set_74/support_set/image_80.png, 29
set_74/support_set/image_81.png, 30
set_74/support_set/image_82.png, 30
set_74/support_set/image_83.png, 31
set_74/support_set/image_84.png, 31
set_74/support_set/image_85.png, 31
set_74/support_set/image_86.png, 32
set_74/support_set/image_87.png, 32
set_74/support_set/image_88.png, 33
set_74/support_set/image_89.png, 33
set_74/support_set/image_90.png, 34
set_74/support_set/image_91.png, 34
set_74/support_set/image_92.png, 35
set_74/support_set/image_93.png, 35
set_74/support_set/image_94.png, 36
set_74/support_set/image_95.png, 36
set_74/support_set/image_96.png, 37
set_74/support_set/image_97.png, 37
set_74/support_set/image_98.png, 38
set_74/support_set/image_99.png, 38
set_74/support_set/image_100.png, 39
set_74/support_set/image_101.png, 39
set_74/support_set/image_102.png, 39
set_74/support_set/image_103.png, 40
set_74/support_set/image_104.png, 40
set_74/support_set/image_105.png, 41
set_74/support_set/image_106.png, 41
set_74/support_set/image_107.png, 42
set_74/support_set/image_108.png, 42
