set_6/query_set/image_0.png, 0
set_6/query_set/image_1.png, 0
set_6/query_set/image_2.png, 0
set_6/query_set/image_3.png, 0
set_6/query_set/image_4.png, 0
set_6/query_set/image_5.png, 0
set_6/query_set/image_6.png, 0
set_6/query_set/image_7.png, 0
set_6/query_set/image_8.png, 0
set_6/query_set/image_9.png, 0
set_6/query_set/image_10.png, 1
set_6/query_set/image_11.png, 1
set_6/query_set/image_12.png, 1
set_6/query_set/image_13.png, 1
set_6/query_set/image_14.png, 1
set_6/query_set/image_15.png, 1
set_6/query_set/image_16.png, 1
set_6/query_set/image_17.png, 1
set_6/query_set/image_18.png, 1
set_6/query_set/image_19.png, 1
set_6/query_set/image_20.png, 2
set_6/query_set/image_21.png, 2
set_6/query_set/image_22.png, 2
set_6/query_set/image_23.png, 2
set_6/query_set/image_24.png, 2
set_6/query_set/image_25.png, 2
set_6/query_set/image_26.png, 2
set_6/query_set/image_27.png, 2
set_6/query_set/image_28.png, 2
set_6/query_set/image_29.png, 2
set_6/query_set/image_30.png, 3
set_6/query_set/image_31.png, 3
set_6/query_set/image_32.png, 3
set_6/query_set/image_33.png, 3
set_6/query_set/image_34.png, 3
set_6/query_set/image_35.png, 3
set_6/query_set/image_36.png, 3
set_6/query_set/image_37.png, 3
set_6/query_set/image_38.png, 3
set_6/query_set/image_39.png, 3
set_6/query_set/image_40.png, 4
set_6/query_set/image_41.png, 4
set_6/query_set/image_42.png, 4
set_6/query_set/image_43.png, 4
set_6/query_set/image_44.png, 4
set_6/query_set/image_45.png, 4
set_6/query_set/image_46.png, 4
set_6/query_set/image_47.png, 4
set_6/query_set/image_48.png, 4
set_6/query_set/image_49.png, 4
set_6/query_set/image_50.png, 5
set_6/query_set/image_51.png, 5
set_6/query_set/image_52.png, 5
set_6/query_set/image_53.png, 5
set_6/query_set/image_54.png, 5
set_6/query_set/image_55.png, 5
set_6/query_set/image_56.png, 5
set_6/query_set/image_57.png, 5
set_6/query_set/image_58.png, 5
set_6/query_set/image_59.png, 5
set_6/query_set/image_60.png, 6
set_6/query_set/image_61.png, 6
set_6/query_set/image_62.png, 6
set_6/query_set/image_63.png, 6
set_6/query_set/image_64.png, 6
set_6/query_set/image_65.png, 6
set_6/query_set/image_66.png, 6
set_6/query_set/image_67.png, 6
set_6/query_set/image_68.png, 6
set_6/query_set/image_69.png, 6
set_6/query_set/image_70.png, 7
set_6/query_set/image_71.png, 7
set_6/query_set/image_72.png, 7
set_6/query_set/image_73.png, 7
set_6/query_set/image_74.png, 7
set_6/query_set/image_75.png, 7
set_6/query_set/image_76.png, 7
set_6/query_set/image_77.png, 7
set_6/query_set/image_78.png, 7
set_6/query_set/image_79.png, 7
set_6/query_set/image_80.png, 8
set_6/query_set/image_81.png, 8
set_6/query_set/image_82.png, 8
set_6/query_set/image_83.png, 8
set_6/query_set/image_84.png, 8
set_6/query_set/image_85.png, 8
set_6/query_set/image_86.png, 8
set_6/query_set/image_87.png, 8
set_6/query_set/image_88.png, 8
set_6/query_set/image_89.png, 8
set_6/query_set/image_90.png, 9
set_6/query_set/image_91.png, 9
set_6/query_set/image_92.png, 9
set_6/query_set/image_93.png, 9
set_6/query_set/image_94.png, 9
set_6/query_set/image_95.png, 9
set_6/query_set/image_96.png, 9
set_6/query_set/image_97.png, 9
set_6/query_set/image_98.png, 9
set_6/query_set/image_99.png, 9
set_6/query_set/image_100.png, 10
set_6/query_set/image_101.png, 10
set_6/query_set/image_102.png, 10
set_6/query_set/image_103.png, 10
set_6/query_set/image_104.png, 10
set_6/query_set/image_105.png, 10
set_6/query_set/image_106.png, 10
set_6/query_set/image_107.png, 10
set_6/query_set/image_108.png, 10
set_6/query_set/image_109.png, 10
set_6/query_set/image_110.png, 11
set_6/query_set/image_111.png, 11
set_6/query_set/image_112.png, 11
set_6/query_set/image_113.png, 11
set_6/query_set/image_114.png, 11
set_6/query_set/image_115.png, 11
set_6/query_set/image_116.png, 11
set_6/query_set/image_117.png, 11
set_6/query_set/image_118.png, 11
set_6/query_set/image_119.png, 11
set_6/query_set/image_120.png, 12
set_6/query_set/image_121.png, 12
set_6/query_set/image_122.png, 12
set_6/query_set/image_123.png, 12
set_6/query_set/image_124.png, 12
set_6/query_set/image_125.png, 12
set_6/query_set/image_126.png, 12
set_6/query_set/image_127.png, 12
set_6/query_set/image_128.png, 12
set_6/query_set/image_129.png, 12
set_6/query_set/image_130.png, 13
set_6/query_set/image_131.png, 13
set_6/query_set/image_132.png, 13
set_6/query_set/image_133.png, 13
set_6/query_set/image_134.png, 13
set_6/query_set/image_135.png, 13
set_6/query_set/image_136.png, 13
set_6/query_set/image_137.png, 13
set_6/query_set/image_138.png, 13
set_6/query_set/image_139.png, 13
set_6/query_set/image_140.png, 14
set_6/query_set/image_141.png, 14
set_6/query_set/image_142.png, 14
set_6/query_set/image_143.png, 14
set_6/query_set/image_144.png, 14
set_6/query_set/image_145.png, 14
set_6/query_set/image_146.png, 14
set_6/query_set/image_147.png, 14
set_6/query_set/image_148.png, 14
set_6/query_set/image_149.png, 14
set_6/query_set/image_150.png, 15
set_6/query_set/image_151.png, 15
set_6/query_set/image_152.png, 15
set_6/query_set/image_153.png, 15
set_6/query_set/image_154.png, 15
set_6/query_set/image_155.png, 15
set_6/query_set/image_156.png, 15
set_6/query_set/image_157.png, 15
set_6/query_set/image_158.png, 15
set_6/query_set/image_159.png, 15
set_6/query_set/image_160.png, 16
set_6/query_set/image_161.png, 16
set_6/query_set/image_162.png, 16
set_6/query_set/image_163.png, 16
set_6/query_set/image_164.png, 16
set_6/query_set/image_165.png, 16
set_6/query_set/image_166.png, 16
set_6/query_set/image_167.png, 16
set_6/query_set/image_168.png, 16
set_6/query_set/image_169.png, 16
set_6/query_set/image_170.png, 17
set_6/query_set/image_171.png, 17
set_6/query_set/image_172.png, 17
set_6/query_set/image_173.png, 17
set_6/query_set/image_174.png, 17
set_6/query_set/image_175.png, 17
set_6/query_set/image_176.png, 17
set_6/query_set/image_177.png, 17
set_6/query_set/image_178.png, 17
set_6/query_set/image_179.png, 17
set_6/query_set/image_180.png, 18
set_6/query_set/image_181.png, 18
set_6/query_set/image_182.png, 18
set_6/query_set/image_183.png, 18
set_6/query_set/image_184.png, 18
set_6/query_set/image_185.png, 18
set_6/query_set/image_186.png, 18
set_6/query_set/image_187.png, 18
set_6/query_set/image_188.png, 18
set_6/query_set/image_189.png, 18
set_6/query_set/image_190.png, 19
set_6/query_set/image_191.png, 19
set_6/query_set/image_192.png, 19
set_6/query_set/image_193.png, 19
set_6/query_set/image_194.png, 19
set_6/query_set/image_195.png, 19
set_6/query_set/image_196.png, 19
set_6/query_set/image_197.png, 19
set_6/query_set/image_198.png, 19
set_6/query_set/image_199.png, 19
set_6/query_set/image_200.png, 20
set_6/query_set/image_201.png, 20
set_6/query_set/image_202.png, 20
set_6/query_set/image_203.png, 20
set_6/query_set/image_204.png, 20
set_6/query_set/image_205.png, 20
set_6/query_set/image_206.png, 20
set_6/query_set/image_207.png, 20
set_6/query_set/image_208.png, 20
set_6/query_set/image_209.png, 20
set_6/query_set/image_210.png, 21
set_6/query_set/image_211.png, 21
set_6/query_set/image_212.png, 21
set_6/query_set/image_213.png, 21
set_6/query_set/image_214.png, 21
set_6/query_set/image_215.png, 21
set_6/query_set/image_216.png, 21
set_6/query_set/image_217.png, 21
set_6/query_set/image_218.png, 21
set_6/query_set/image_219.png, 21
set_6/query_set/image_220.png, 22
set_6/query_set/image_221.png, 22
set_6/query_set/image_222.png, 22
set_6/query_set/image_223.png, 22
set_6/query_set/image_224.png, 22
set_6/query_set/image_225.png, 22
set_6/query_set/image_226.png, 22
set_6/query_set/image_227.png, 22
set_6/query_set/image_228.png, 22
set_6/query_set/image_229.png, 22
set_6/query_set/image_230.png, 23
set_6/query_set/image_231.png, 23
set_6/query_set/image_232.png, 23
set_6/query_set/image_233.png, 23
set_6/query_set/image_234.png, 23
set_6/query_set/image_235.png, 23
set_6/query_set/image_236.png, 23
set_6/query_set/image_237.png, 23
set_6/query_set/image_238.png, 23
set_6/query_set/image_239.png, 23
