{
  "about": {
    "problemID": "LWLL1_phonedataset_problem",
    "problemName": "LWLL1_phonedataset",
    "problemDescription": "International Phone numbers dataset.",
    "problemSchemaVersion": "4.0.0",
    "problemVersion": "4.0.0",
    "taskKeywords": [
      "classification",
      "multiClass"
    ]
  },
  "inputs": {
    "data": [
      {
        "datasetID": "LWLL1_phonedataset_dataset",
        "targets": [
          {
            "targetIndex": 0,
            "resID": "learningData",
            "colIndex": 2,
            "colName": "country code"
          }
        ]
      }
    ],
    "dataSplits": {
      "splitsFile": "dataSplits.csv",
      "datasetViewMaps": {
        "train": [
          {
            "from": "LWLL1_phonedataset_dataset",
            "to": "LWLL1_phonedataset_dataset_TRAIN"
          }
        ],
        "test": [
          {
            "from": "LWLL1_phonedataset_dataset",
            "to": "LWLL1_phonedataset_dataset_TEST"
          }
        ],
        "score": [
          {
            "from": "LWLL1_phonedataset_dataset",
            "to": "LWLL1_phonedataset_dataset_SCORE"
          }
        ]
      }
    },
    "performanceMetrics": [
      {
        "metric": "accuracy"
      }
    ]
  },
  "expectedOutputs": {
    "predictionsFile": "predictions.csv"
  }
}