set_19/support_set/image_0.png, 0
set_19/support_set/image_1.png, 0
set_19/support_set/image_2.png, 0
set_19/support_set/image_3.png, 0
set_19/support_set/image_4.png, 0
set_19/support_set/image_5.png, 0
set_19/support_set/image_6.png, 0
set_19/support_set/image_7.png, 0
set_19/support_set/image_8.png, 0
set_19/support_set/image_9.png, 0
set_19/support_set/image_10.png, 1
set_19/support_set/image_11.png, 1
set_19/support_set/image_12.png, 1
set_19/support_set/image_13.png, 1
set_19/support_set/image_14.png, 1
set_19/support_set/image_15.png, 1
set_19/support_set/image_16.png, 1
set_19/support_set/image_17.png, 1
set_19/support_set/image_18.png, 1
set_19/support_set/image_19.png, 1
set_19/support_set/image_20.png, 1
set_19/support_set/image_21.png, 1
set_19/support_set/image_22.png, 1
set_19/support_set/image_23.png, 1
set_19/support_set/image_24.png, 1
set_19/support_set/image_25.png, 1
set_19/support_set/image_26.png, 1
set_19/support_set/image_27.png, 1
set_19/support_set/image_28.png, 1
set_19/support_set/image_29.png, 1
set_19/support_set/image_30.png, 1
set_19/support_set/image_31.png, 2
set_19/support_set/image_32.png, 2
set_19/support_set/image_33.png, 2
set_19/support_set/image_34.png, 2
set_19/support_set/image_35.png, 2
set_19/support_set/image_36.png, 2
set_19/support_set/image_37.png, 2
set_19/support_set/image_38.png, 2
set_19/support_set/image_39.png, 2
set_19/support_set/image_40.png, 2
set_19/support_set/image_41.png, 2
set_19/support_set/image_42.png, 2
set_19/support_set/image_43.png, 2
set_19/support_set/image_44.png, 2
set_19/support_set/image_45.png, 2
set_19/support_set/image_46.png, 2
set_19/support_set/image_47.png, 2
set_19/support_set/image_48.png, 2
set_19/support_set/image_49.png, 2
set_19/support_set/image_50.png, 2
set_19/support_set/image_51.png, 2
set_19/support_set/image_52.png, 2
set_19/support_set/image_53.png, 2
set_19/support_set/image_54.png, 3
set_19/support_set/image_55.png, 3
set_19/support_set/image_56.png, 3
set_19/support_set/image_57.png, 3
set_19/support_set/image_58.png, 3
set_19/support_set/image_59.png, 3
set_19/support_set/image_60.png, 3
set_19/support_set/image_61.png, 3
set_19/support_set/image_62.png, 3
set_19/support_set/image_63.png, 4
set_19/support_set/image_64.png, 4
set_19/support_set/image_65.png, 4
set_19/support_set/image_66.png, 4
set_19/support_set/image_67.png, 4
set_19/support_set/image_68.png, 4
set_19/support_set/image_69.png, 4
set_19/support_set/image_70.png, 4
set_19/support_set/image_71.png, 4
set_19/support_set/image_72.png, 5
set_19/support_set/image_73.png, 5
set_19/support_set/image_74.png, 5
set_19/support_set/image_75.png, 5
set_19/support_set/image_76.png, 5
set_19/support_set/image_77.png, 5
set_19/support_set/image_78.png, 5
set_19/support_set/image_79.png, 5
set_19/support_set/image_80.png, 5
set_19/support_set/image_81.png, 5
set_19/support_set/image_82.png, 5
set_19/support_set/image_83.png, 5
set_19/support_set/image_84.png, 5
set_19/support_set/image_85.png, 5
set_19/support_set/image_86.png, 5
set_19/support_set/image_87.png, 5
set_19/support_set/image_88.png, 5
set_19/support_set/image_89.png, 5
set_19/support_set/image_90.png, 5
set_19/support_set/image_91.png, 5
set_19/support_set/image_92.png, 5
set_19/support_set/image_93.png, 5
set_19/support_set/image_94.png, 6
set_19/support_set/image_95.png, 6
set_19/support_set/image_96.png, 6
set_19/support_set/image_97.png, 6
set_19/support_set/image_98.png, 6
set_19/support_set/image_99.png, 6
set_19/support_set/image_100.png, 6
set_19/support_set/image_101.png, 6
set_19/support_set/image_102.png, 6
set_19/support_set/image_103.png, 6
set_19/support_set/image_104.png, 6
set_19/support_set/image_105.png, 6
set_19/support_set/image_106.png, 6
set_19/support_set/image_107.png, 6
set_19/support_set/image_108.png, 6
set_19/support_set/image_109.png, 7
set_19/support_set/image_110.png, 7
set_19/support_set/image_111.png, 7
set_19/support_set/image_112.png, 7
set_19/support_set/image_113.png, 7
set_19/support_set/image_114.png, 7
set_19/support_set/image_115.png, 7
set_19/support_set/image_116.png, 7
set_19/support_set/image_117.png, 7
set_19/support_set/image_118.png, 7
set_19/support_set/image_119.png, 8
set_19/support_set/image_120.png, 8
set_19/support_set/image_121.png, 8
set_19/support_set/image_122.png, 8
set_19/support_set/image_123.png, 8
set_19/support_set/image_124.png, 8
set_19/support_set/image_125.png, 8
set_19/support_set/image_126.png, 8
set_19/support_set/image_127.png, 8
set_19/support_set/image_128.png, 8
set_19/support_set/image_129.png, 8
set_19/support_set/image_130.png, 8
set_19/support_set/image_131.png, 8
set_19/support_set/image_132.png, 8
set_19/support_set/image_133.png, 8
set_19/support_set/image_134.png, 8
set_19/support_set/image_135.png, 8
set_19/support_set/image_136.png, 8
set_19/support_set/image_137.png, 8
set_19/support_set/image_138.png, 8
set_19/support_set/image_139.png, 8
set_19/support_set/image_140.png, 8
set_19/support_set/image_141.png, 8
set_19/support_set/image_142.png, 8
set_19/support_set/image_143.png, 8
set_19/support_set/image_144.png, 8
set_19/support_set/image_145.png, 8
set_19/support_set/image_146.png, 8
set_19/support_set/image_147.png, 9
set_19/support_set/image_148.png, 9
set_19/support_set/image_149.png, 9
set_19/support_set/image_150.png, 9
set_19/support_set/image_151.png, 9
set_19/support_set/image_152.png, 9
set_19/support_set/image_153.png, 9
set_19/support_set/image_154.png, 9
set_19/support_set/image_155.png, 9
set_19/support_set/image_156.png, 9
set_19/support_set/image_157.png, 9
set_19/support_set/image_158.png, 10
set_19/support_set/image_159.png, 10
set_19/support_set/image_160.png, 10
set_19/support_set/image_161.png, 10
set_19/support_set/image_162.png, 10
set_19/support_set/image_163.png, 11
set_19/support_set/image_164.png, 11
set_19/support_set/image_165.png, 11
set_19/support_set/image_166.png, 11
set_19/support_set/image_167.png, 11
set_19/support_set/image_168.png, 11
set_19/support_set/image_169.png, 11
set_19/support_set/image_170.png, 11
set_19/support_set/image_171.png, 12
set_19/support_set/image_172.png, 12
set_19/support_set/image_173.png, 12
set_19/support_set/image_174.png, 12
set_19/support_set/image_175.png, 12
set_19/support_set/image_176.png, 12
set_19/support_set/image_177.png, 12
set_19/support_set/image_178.png, 12
set_19/support_set/image_179.png, 12
set_19/support_set/image_180.png, 12
set_19/support_set/image_181.png, 12
set_19/support_set/image_182.png, 12
set_19/support_set/image_183.png, 13
set_19/support_set/image_184.png, 13
set_19/support_set/image_185.png, 13
set_19/support_set/image_186.png, 13
set_19/support_set/image_187.png, 13
set_19/support_set/image_188.png, 13
set_19/support_set/image_189.png, 13
set_19/support_set/image_190.png, 13
set_19/support_set/image_191.png, 13
set_19/support_set/image_192.png, 13
set_19/support_set/image_193.png, 13
set_19/support_set/image_194.png, 13
set_19/support_set/image_195.png, 13
set_19/support_set/image_196.png, 13
set_19/support_set/image_197.png, 13
set_19/support_set/image_198.png, 13
set_19/support_set/image_199.png, 13
set_19/support_set/image_200.png, 13
set_19/support_set/image_201.png, 14
set_19/support_set/image_202.png, 14
set_19/support_set/image_203.png, 14
set_19/support_set/image_204.png, 14
set_19/support_set/image_205.png, 14
set_19/support_set/image_206.png, 14
set_19/support_set/image_207.png, 14
set_19/support_set/image_208.png, 14
set_19/support_set/image_209.png, 14
set_19/support_set/image_210.png, 14
set_19/support_set/image_211.png, 14
set_19/support_set/image_212.png, 14
set_19/support_set/image_213.png, 14
set_19/support_set/image_214.png, 14
set_19/support_set/image_215.png, 14
set_19/support_set/image_216.png, 15
set_19/support_set/image_217.png, 15
set_19/support_set/image_218.png, 15
set_19/support_set/image_219.png, 15
set_19/support_set/image_220.png, 15
set_19/support_set/image_221.png, 15
set_19/support_set/image_222.png, 15
set_19/support_set/image_223.png, 15
set_19/support_set/image_224.png, 15
set_19/support_set/image_225.png, 16
set_19/support_set/image_226.png, 16
set_19/support_set/image_227.png, 16
set_19/support_set/image_228.png, 16
set_19/support_set/image_229.png, 16
set_19/support_set/image_230.png, 16
set_19/support_set/image_231.png, 16
set_19/support_set/image_232.png, 16
set_19/support_set/image_233.png, 16
set_19/support_set/image_234.png, 16
set_19/support_set/image_235.png, 16
set_19/support_set/image_236.png, 16
set_19/support_set/image_237.png, 16
set_19/support_set/image_238.png, 16
set_19/support_set/image_239.png, 16
set_19/support_set/image_240.png, 16
set_19/support_set/image_241.png, 16
set_19/support_set/image_242.png, 16
set_19/support_set/image_243.png, 16
set_19/support_set/image_244.png, 16
set_19/support_set/image_245.png, 16
set_19/support_set/image_246.png, 16
set_19/support_set/image_247.png, 16
set_19/support_set/image_248.png, 16
set_19/support_set/image_249.png, 16
set_19/support_set/image_250.png, 16
set_19/support_set/image_251.png, 16
set_19/support_set/image_252.png, 16
set_19/support_set/image_253.png, 16
set_19/support_set/image_254.png, 16
set_19/support_set/image_255.png, 17
set_19/support_set/image_256.png, 17
set_19/support_set/image_257.png, 17
set_19/support_set/image_258.png, 17
set_19/support_set/image_259.png, 17
set_19/support_set/image_260.png, 17
set_19/support_set/image_261.png, 18
set_19/support_set/image_262.png, 18
set_19/support_set/image_263.png, 18
set_19/support_set/image_264.png, 18
set_19/support_set/image_265.png, 18
set_19/support_set/image_266.png, 18
set_19/support_set/image_267.png, 18
set_19/support_set/image_268.png, 18
set_19/support_set/image_269.png, 18
set_19/support_set/image_270.png, 18
set_19/support_set/image_271.png, 18
set_19/support_set/image_272.png, 18
set_19/support_set/image_273.png, 18
set_19/support_set/image_274.png, 18
set_19/support_set/image_275.png, 18
set_19/support_set/image_276.png, 18
set_19/support_set/image_277.png, 18
set_19/support_set/image_278.png, 18
set_19/support_set/image_279.png, 18
set_19/support_set/image_280.png, 19
set_19/support_set/image_281.png, 19
set_19/support_set/image_282.png, 19
set_19/support_set/image_283.png, 19
set_19/support_set/image_284.png, 19
set_19/support_set/image_285.png, 19
set_19/support_set/image_286.png, 19
set_19/support_set/image_287.png, 19
set_19/support_set/image_288.png, 19
set_19/support_set/image_289.png, 19
set_19/support_set/image_290.png, 20
set_19/support_set/image_291.png, 20
set_19/support_set/image_292.png, 20
set_19/support_set/image_293.png, 20
set_19/support_set/image_294.png, 20
set_19/support_set/image_295.png, 20
set_19/support_set/image_296.png, 20
set_19/support_set/image_297.png, 20
set_19/support_set/image_298.png, 20
set_19/support_set/image_299.png, 20
set_19/support_set/image_300.png, 20
set_19/support_set/image_301.png, 20
set_19/support_set/image_302.png, 20
set_19/support_set/image_303.png, 20
set_19/support_set/image_304.png, 20
set_19/support_set/image_305.png, 20
set_19/support_set/image_306.png, 20
set_19/support_set/image_307.png, 20
set_19/support_set/image_308.png, 21
set_19/support_set/image_309.png, 21
set_19/support_set/image_310.png, 21
set_19/support_set/image_311.png, 21
set_19/support_set/image_312.png, 21
set_19/support_set/image_313.png, 21
set_19/support_set/image_314.png, 21
set_19/support_set/image_315.png, 21
set_19/support_set/image_316.png, 21
set_19/support_set/image_317.png, 21
set_19/support_set/image_318.png, 21
set_19/support_set/image_319.png, 21
set_19/support_set/image_320.png, 21
set_19/support_set/image_321.png, 21
set_19/support_set/image_322.png, 21
set_19/support_set/image_323.png, 21
set_19/support_set/image_324.png, 21
set_19/support_set/image_325.png, 21
set_19/support_set/image_326.png, 21
set_19/support_set/image_327.png, 21
set_19/support_set/image_328.png, 21
set_19/support_set/image_329.png, 21
set_19/support_set/image_330.png, 21
set_19/support_set/image_331.png, 21
set_19/support_set/image_332.png, 21
set_19/support_set/image_333.png, 21
set_19/support_set/image_334.png, 21
set_19/support_set/image_335.png, 21
set_19/support_set/image_336.png, 21
set_19/support_set/image_337.png, 21
set_19/support_set/image_338.png, 21
set_19/support_set/image_339.png, 21
set_19/support_set/image_340.png, 21
set_19/support_set/image_341.png, 21
set_19/support_set/image_342.png, 21
set_19/support_set/image_343.png, 21
set_19/support_set/image_344.png, 21
set_19/support_set/image_345.png, 21
set_19/support_set/image_346.png, 21
set_19/support_set/image_347.png, 21
set_19/support_set/image_348.png, 21
set_19/support_set/image_349.png, 21
set_19/support_set/image_350.png, 22
set_19/support_set/image_351.png, 22
set_19/support_set/image_352.png, 22
set_19/support_set/image_353.png, 22
set_19/support_set/image_354.png, 22
set_19/support_set/image_355.png, 22
set_19/support_set/image_356.png, 22
set_19/support_set/image_357.png, 22
set_19/support_set/image_358.png, 23
set_19/support_set/image_359.png, 23
set_19/support_set/image_360.png, 23
set_19/support_set/image_361.png, 23
set_19/support_set/image_362.png, 23
set_19/support_set/image_363.png, 23
set_19/support_set/image_364.png, 23
set_19/support_set/image_365.png, 24
set_19/support_set/image_366.png, 24
set_19/support_set/image_367.png, 24
set_19/support_set/image_368.png, 24
set_19/support_set/image_369.png, 24
set_19/support_set/image_370.png, 24
set_19/support_set/image_371.png, 24
set_19/support_set/image_372.png, 24
set_19/support_set/image_373.png, 24
set_19/support_set/image_374.png, 24
set_19/support_set/image_375.png, 24
set_19/support_set/image_376.png, 24
set_19/support_set/image_377.png, 24
set_19/support_set/image_378.png, 24
set_19/support_set/image_379.png, 24
set_19/support_set/image_380.png, 24
set_19/support_set/image_381.png, 24
set_19/support_set/image_382.png, 24
set_19/support_set/image_383.png, 24
set_19/support_set/image_384.png, 24
set_19/support_set/image_385.png, 24
