set_16/query_set/image_0.png, 0
set_16/query_set/image_1.png, 0
set_16/query_set/image_2.png, 0
set_16/query_set/image_3.png, 0
set_16/query_set/image_4.png, 0
set_16/query_set/image_5.png, 0
set_16/query_set/image_6.png, 0
set_16/query_set/image_7.png, 0
set_16/query_set/image_8.png, 0
set_16/query_set/image_9.png, 0
set_16/query_set/image_10.png, 1
set_16/query_set/image_11.png, 1
set_16/query_set/image_12.png, 1
set_16/query_set/image_13.png, 1
set_16/query_set/image_14.png, 1
set_16/query_set/image_15.png, 1
set_16/query_set/image_16.png, 1
set_16/query_set/image_17.png, 1
set_16/query_set/image_18.png, 1
set_16/query_set/image_19.png, 1
set_16/query_set/image_20.png, 2
set_16/query_set/image_21.png, 2
set_16/query_set/image_22.png, 2
set_16/query_set/image_23.png, 2
set_16/query_set/image_24.png, 2
set_16/query_set/image_25.png, 2
set_16/query_set/image_26.png, 2
set_16/query_set/image_27.png, 2
set_16/query_set/image_28.png, 2
set_16/query_set/image_29.png, 2
set_16/query_set/image_30.png, 3
set_16/query_set/image_31.png, 3
set_16/query_set/image_32.png, 3
set_16/query_set/image_33.png, 3
set_16/query_set/image_34.png, 3
set_16/query_set/image_35.png, 3
set_16/query_set/image_36.png, 3
set_16/query_set/image_37.png, 3
set_16/query_set/image_38.png, 3
set_16/query_set/image_39.png, 3
set_16/query_set/image_40.png, 4
set_16/query_set/image_41.png, 4
set_16/query_set/image_42.png, 4
set_16/query_set/image_43.png, 4
set_16/query_set/image_44.png, 4
set_16/query_set/image_45.png, 4
set_16/query_set/image_46.png, 4
set_16/query_set/image_47.png, 4
set_16/query_set/image_48.png, 4
set_16/query_set/image_49.png, 4
