set_45/support_set/image_0.png, 0
set_45/support_set/image_1.png, 1
set_45/support_set/image_2.png, 2
set_45/support_set/image_3.png, 3
set_45/support_set/image_4.png, 3
set_45/support_set/image_5.png, 4
set_45/support_set/image_6.png, 5
set_45/support_set/image_7.png, 5
set_45/support_set/image_8.png, 6
set_45/support_set/image_9.png, 6
set_45/support_set/image_10.png, 7
set_45/support_set/image_11.png, 8
set_45/support_set/image_12.png, 9
set_45/support_set/image_13.png, 10
set_45/support_set/image_14.png, 10
set_45/support_set/image_15.png, 11
set_45/support_set/image_16.png, 11
set_45/support_set/image_17.png, 12
set_45/support_set/image_18.png, 12
set_45/support_set/image_19.png, 13
set_45/support_set/image_20.png, 14
set_45/support_set/image_21.png, 14
set_45/support_set/image_22.png, 15
set_45/support_set/image_23.png, 15
set_45/support_set/image_24.png, 16
set_45/support_set/image_25.png, 17
set_45/support_set/image_26.png, 18
set_45/support_set/image_27.png, 18
set_45/support_set/image_28.png, 19
set_45/support_set/image_29.png, 20
