{
  "about": {
    "problemID": "LWLL1_metadataset_problem",
    "problemName": "LWLL_problem",
    "problemDescription": "Few shot classification task. The support set is used for learning how to solve the task. The query set are used to evaluate the performance on the said task.",
    "problemSchemaVersion": "4.0.0",
    "problemVersion": "4.0.0",
    "taskKeywords": [
      "classification",
      "multiClass",
      "image"
    ]
  },
  "inputs": {
    "data": [
      {
        "datasetID": "LWLL1_metadataset_dataset",
        "targets": [
          {
            "targetIndex": 0,
            "resID": "learningData",
            "colIndex": 3,
            "colName": "label"
          }
        ]
      }
    ],
    "dataSplits": {
      "method": "holdOut",
      "testSize": 0.246,
      "stratified": true,
      "numRepeats": 0,
      "splitsFile": "dataSplits.csv",
      "datasetViewMaps": {
        "train": [
          {
            "from": "LWLL1_metadataset_dataset",
            "to": "LWLL1_metadataset_dataset_TRAIN"
          }
        ],
        "test": [
          {
            "from": "LWLL1_metadataset_dataset",
            "to": "LWLL1_metadataset_dataset_TEST"
          }
        ],
        "score": [
          {
            "from": "LWLL1_metadataset_dataset",
            "to": "LWLL1_metadataset_dataset_SCORE"
          }
        ]
      }
    },
    "performanceMetrics": [
      {
        "metric": "accuracy"
      }
    ]
  },
  "expectedOutputs": {
    "predictionsFile": "predictions.csv"
  }
}
