{
  "about": {
    "datasetID": "LWLL1_phonedataset_dataset_TRAIN",
    "datasetName": "LWLL1_phonedataset",
    "description": "International Phone numbers dataset.",
    "license": "Apache-2.0",
    "citation": "UBC PLAI Lab phone numbers dataset",
    "source": "https://en.wikipedia.org/wiki/National_conventions_for_writing_telephone_numbers#International_Telecommunication_Union",
    "sourceURI": "https://github.com/truebluejason/PhoneNumberParser/blob/phonedata/data/phonenumber.csv",
    "datasetSchemaVersion": "4.0.0",
    "redacted": false,
    "datasetVersion": "4.0.0",
    "digest": "ed20d5c63a23d3c8910ce96ac119033b5fad909ec09442a51dc9f434f0545bb6"
  },
  "dataResources": [
    {
      "resID": "learningData",
      "resPath": "tables/learningData.csv",
      "resType": "table",
      "resFormat": {
        "text/csv": [
          "csv"
        ]
      },
      "isCollection": false,
      "columns": [
        {
          "colIndex": 0,
          "colName": "d3mIndex",
          "colType": "integer",
          "role": [
            "index"
          ]
        },
        {
          "colIndex": 1,
          "colName": "phone number",
          "colType": "string",
          "role": [
            "attribute"
          ]
        },
        {
          "colIndex": 2,
          "colName": "country code",
          "colType": "integer",
          "role": [
            "suggestedTarget"
          ]
        }
      ]
    }
  ]
}