set_15/support_set/image_0.png, 0
set_15/support_set/image_1.png, 0
set_15/support_set/image_2.png, 1
set_15/support_set/image_3.png, 1
set_15/support_set/image_4.png, 1
set_15/support_set/image_5.png, 2
set_15/support_set/image_6.png, 2
set_15/support_set/image_7.png, 2
set_15/support_set/image_8.png, 2
set_15/support_set/image_9.png, 3
set_15/support_set/image_10.png, 3
set_15/support_set/image_11.png, 4
set_15/support_set/image_12.png, 5
set_15/support_set/image_13.png, 5
set_15/support_set/image_14.png, 6
set_15/support_set/image_15.png, 6
set_15/support_set/image_16.png, 6
set_15/support_set/image_17.png, 7
set_15/support_set/image_18.png, 8
set_15/support_set/image_19.png, 8
set_15/support_set/image_20.png, 8
set_15/support_set/image_21.png, 9
set_15/support_set/image_22.png, 9
set_15/support_set/image_23.png, 9
set_15/support_set/image_24.png, 9
set_15/support_set/image_25.png, 10
set_15/support_set/image_26.png, 10
set_15/support_set/image_27.png, 11
set_15/support_set/image_28.png, 11
set_15/support_set/image_29.png, 12
set_15/support_set/image_30.png, 12
set_15/support_set/image_31.png, 12
set_15/support_set/image_32.png, 13
set_15/support_set/image_33.png, 13
set_15/support_set/image_34.png, 13
set_15/support_set/image_35.png, 14
set_15/support_set/image_36.png, 14
set_15/support_set/image_37.png, 15
set_15/support_set/image_38.png, 15
set_15/support_set/image_39.png, 15
set_15/support_set/image_40.png, 16
set_15/support_set/image_41.png, 17
set_15/support_set/image_42.png, 17
set_15/support_set/image_43.png, 18
set_15/support_set/image_44.png, 18
set_15/support_set/image_45.png, 19
set_15/support_set/image_46.png, 19
